module github.com/NVIDIA/nvidia-container-toolkit

go 1.14

require (
	github.com/BurntSushi/toml v1.0.0
	github.com/NVIDIA/go-nvml v0.11.6-0
	github.com/container-orchestrated-devices/container-device-interface v0.3.1-0.20220224133719-e5457123010b
	github.com/containers/podman/v4 v4.0.3
	github.com/opencontainers/runtime-spec v1.0.3-0.20211214071223-8958f93039ab
	github.com/pelletier/go-toml v1.9.4
	github.com/sirupsen/logrus v1.8.1
	github.com/stretchr/testify v1.7.0
	github.com/urfave/cli/v2 v2.3.0
	golang.org/x/mod v0.5.0
	golang.org/x/sys v0.0.0-20220114195835-da31bd327af9
)
